{
"AWSTemplateFormatVersion": "2010-09-09",
    "Description": "Security Groups",
    "Metadata": {

    },
    "Parameters": {
    
    },
    "Mappings": {

    },
    "Conditions": {

    },
    "Resources": {
        
        "VPC": {
          "Type": "AWS::EC2::VPC",
          "Properties": {
            "CidrBlock": "172.16.0.0/16",
            "Tags": [
                { "Key": "Name", "Value":  "Test VPC" }
            ]
          }
        },
        
        "WebserverSG" : {
          "Type" : "AWS::EC2::SecurityGroup",
          "Properties" : {
            "GroupDescription" : "SG for Webservers",
            "SecurityGroupIngress" : [ 
                { "IpProtocol" : "tcp", "FromPort" : "80", "ToPort" : "80", "CidrIp" : "0.0.0.0/0" },
                { "IpProtocol" : "tcp", "FromPort" : "443", "ToPort" : "443", "CidrIp" : "0.0.0.0/0" }
            ],
            "VpcId" : 
            { "Ref": "VPC" }
            ,
            "Tags" :  [ 
                { "Key": "Name", "Value":  "Webservers SG" }
            ]
          }
        }
        

    },
    "Outputs": {
        
        "SG" : {
          "Value" : 
          { "Ref": "WebserverSG" }
        },
        
        "VPC" : {
          "Value" : {"Ref":"VPC"} 
        }
    }
}